LRU_RTLSystemC/LRU_test.vcd
$date
     May 26, 2022       16:48:02
$end

$version
 SystemC 2.3.3-Accellera --- May 22 2022 09:43:05
$end

$timescale
     1 ps
$end

$scope module SystemC $end
$var wire    4  aaaaa  DataRead [3:0]  $end
$var wire    4  aaaab  newpage [3:0]  $end
$var wire    4  aaaac  DataWrite [3:0]  $end
$var wire    4  aaaad  adderout [3:0]  $end
$var wire    4  aaaae  UPDATEreg [3:0]  $end
$var wire    4  aaaaf  mem0 [3:0]  $end
$var wire    4  aaaag  mem1 [3:0]  $end
$var wire    4  aaaah  mem2 [3:0]  $end
$var wire    4  aaaai  mem3 [3:0]  $end
$var wire    4  aaaaj  mem4 [3:0]  $end
$var wire    4  aaaak  mem5 [3:0]  $end
$var wire    4  aaaal  mem6 [3:0]  $end
$var wire    4  aaaam  mem7 [3:0]  $end
$var wire    4  aaaan  mem8 [3:0]  $end
$var wire    4  aaaao  mem9 [3:0]  $end
$var wire    4  aaaap  mem10 [3:0]  $end
$var wire    4  aaaaq  mem11 [3:0]  $end
$var wire    4  aaaar  mem12 [3:0]  $end
$var wire    4  aaaas  mem13 [3:0]  $end
$var wire    4  aaaat  mem14 [3:0]  $end
$var wire    4  aaaau  mem15 [3:0]  $end
$var wire    1  aaaav  WriteSel       $end
$var wire    1  aaaaw  MemWrite       $end
$var wire    1  aaaax  Ldupd       $end
$var wire    1  aaaay  Cen       $end
$var wire    1  aaaaz  MemRead       $end
$var wire    1  aaaba  Addsel       $end
$var wire    1  aaabb  LdCurr       $end
$var wire    1  aaabc  Countrst       $end
$var wire    1  aaabd  Ldnew       $end
$var wire    1  aaabe  Free       $end
$var wire    4  aaabf  count [3:0]  $end
$var wire    1  aaabg  sign       $end
$var wire    1  aaabh  cout       $end
$var wire    1  aaabi  completed       $end
$var wire    1  aaabj  clk       $end
$var wire    4  aaabk  adderin1 [3:0]  $end
$var wire    4  aaabl  DATAAddress [3:0]  $end
$var wire    4  aaabm  control_address [3:0]  $end
$upscope $end
$enddefinitions  $end

$comment
All initial values are dumped below at time 0 sec = 0 timescale units.
$end

$dumpvars
bXXXX aaaaa
b1 aaaab
bXXXX aaaac
b0 aaaad
bXXXX aaaae
b0 aaaaf
b1 aaaag
b10 aaaah
b11 aaaai
b100 aaaaj
b101 aaaak
b110 aaaal
b111 aaaam
b1000 aaaan
b1001 aaaao
b1010 aaaap
b1011 aaaaq
b1100 aaaar
b1101 aaaas
b1110 aaaat
b1111 aaaau
0aaaav
0aaaaw
0aaaax
0aaaay
0aaaaz
0aaaba
0aaabb
0aaabc
0aaabd
1aaabe
bXXXX aaabf
0aaabg
1aaabh
0aaabi
0aaabj
bXXXX aaabk
bXXXX aaabl
bXXXX aaabm
$end

#5000
1aaabj

#10000
0aaabj

#15000
1aaabj

#20000
1aaabi
0aaabj

#25000
1aaabc
1aaabd
0aaabe
1aaabj

#30000
0aaabj

#35000
b0 aaabf
0aaabh
1aaabj
b0 aaabl
b0 aaabm

#40000
0aaabi
0aaabj

#45000
b1 aaaaa
b10 aaaad
1aaaaz
1aaaba
1aaabb
0aaabc
0aaabd
1aaabg
1aaabj
b1 aaabk
b1 aaabl

#50000
0aaabj

#55000
b0 aaaaa
b1 aaaad
1aaaax
1aaaay
0aaaba
0aaabb
1aaabj
b0 aaabk
b0 aaabl

#60000
0aaabj

#65000
b1 aaaac
b1 aaaae
b1 aaaaf
1aaaaw
0aaaax
0aaaay
0aaaaz
b1 aaabf
1aaabj
b1 aaabl
b1 aaabm

#70000
0aaabj

#75000
b1 aaaaa
b10 aaaad
0aaaaw
1aaaax
1aaaay
1aaaaz
0aaabg
1aaabj
b1 aaabk

#80000
0aaabj

#85000
b10 aaaaa
b10 aaaac
b11 aaaad
b10 aaaae
b10 aaabf
1aaabj
b10 aaabk
b10 aaabl
b10 aaabm

#90000
0aaabj

#95000
b11 aaaaa
b11 aaaac
b100 aaaad
b11 aaaae
b11 aaabf
1aaabj
b11 aaabk
b11 aaabl
b11 aaabm

#100000
0aaabj

#105000
b100 aaaaa
b100 aaaac
b101 aaaad
b100 aaaae
b100 aaabf
1aaabj
b100 aaabk
b100 aaabl
b100 aaabm

#110000
0aaabj

#115000
b101 aaaaa
b101 aaaac
b110 aaaad
b101 aaaae
b101 aaabf
1aaabj
b101 aaabk
b101 aaabl
b101 aaabm

#120000
0aaabj

#125000
b110 aaaaa
b110 aaaac
b111 aaaad
b110 aaaae
b110 aaabf
1aaabj
b110 aaabk
b110 aaabl
b110 aaabm

#130000
0aaabj

#135000
b111 aaaaa
b111 aaaac
b1000 aaaad
b111 aaaae
b111 aaabf
1aaabj
b111 aaabk
b111 aaabl
b111 aaabm

#140000
0aaabj

#145000
b1000 aaaaa
b1000 aaaac
b1001 aaaad
b1000 aaaae
b1000 aaabf
1aaabj
b1000 aaabk
b1000 aaabl
b1000 aaabm

#150000
0aaabj

#155000
b1001 aaaaa
b1001 aaaac
b1010 aaaad
b1001 aaaae
b1001 aaabf
1aaabj
b1001 aaabk
b1001 aaabl
b1001 aaabm

#160000
0aaabj

#165000
b1010 aaaaa
b1010 aaaac
b1011 aaaad
b1010 aaaae
b1010 aaabf
1aaabj
b1010 aaabk
b1010 aaabl
b1010 aaabm

#170000
0aaabj

#175000
b1011 aaaaa
b1011 aaaac
b1100 aaaad
b1011 aaaae
b1011 aaabf
1aaabj
b1011 aaabk
b1011 aaabl
b1011 aaabm

#180000
0aaabj

#185000
b1100 aaaaa
b1100 aaaac
b1101 aaaad
b1100 aaaae
b1100 aaabf
1aaabj
b1100 aaabk
b1100 aaabl
b1100 aaabm

#190000
0aaabj

#195000
b1101 aaaaa
b1101 aaaac
b1110 aaaad
b1101 aaaae
b1101 aaabf
1aaabj
b1101 aaabk
b1101 aaabl
b1101 aaabm

#200000
0aaabj

#205000
b1110 aaaaa
b1110 aaaac
b1111 aaaad
b1110 aaaae
b1110 aaabf
1aaabj
b1110 aaabk
b1110 aaabl
b1110 aaabm

#210000
0aaabj

#215000
b1111 aaaaa
b1111 aaaac
b0 aaaad
b1111 aaaae
b1111 aaabf
1aaabh
1aaabj
b1111 aaabk
b1111 aaabl
b1111 aaabm

#220000
0aaabj

#225000
b0 aaaac
b0 aaaae
1aaaav
0aaaax
0aaaay
0aaaaz
1aaaba
b0 aaabf
0aaabh
1aaabj
b1 aaabl
b0 aaabm

#230000
0aaabj

#235000
b0 aaaag
1aaaaw
1aaabj

#240000
0aaabj

#245000
0aaaav
0aaaaw
0aaaba
1aaabe
1aaabj
b0 aaabl

